{
  "IsEncrypted": false,
  "Values": {
    "AzureWebJobsStorage": "",
    "FUNCTIONS_WORKER_RUNTIME": "python",
    "HUB_CONNECTION_STRING":"",
    "DB_HOST": "",
    "DB_NAME": "",
    "DB_DRIVER": "",
    "DB_USER": "",
    "DB_PASS": ""
  }
}
